{
    "openapi": "3.0.0",
    "info": {
        "title": "API Chat",
        "version": "1.0"
    },
    "servers": [
        {
            "url": "http://swagger.local"
        }
    ],
    "paths": {
        "/enviar": {
            "get": {
                "summary": "mostrar chat archivo",
                "operationId": "b4efd47c2b103a0e30f5be9dd6eaa53a",
                "responses": {
                    "200": {
                        "description": "mostrar chat archivo"
                    },
                    "422": {
                        "description": "Validation error"
                    }
                }
            }
        },
        "/verTest": {
            "get": {
                "summary": "ver test de las vistas",
                "operationId": "5e121d3e0c4ac7ef3927bf988fb4b311",
                "responses": {
                    "200": {
                        "description": "ver test de las vistas"
                    },
                    "default": {
                        "description": "Ha ocurrido un error."
                    }
                }
            }
        },
        "/verMensajeUsuario": {
            "get": {
                "summary": "ver Chat De Usuario",
                "operationId": "2546af23117cad96e2e1946d7b9ec3c0",
                "responses": {
                    "200": {
                        "description": "ver chat de usuario"
                    },
                    "default": {
                        "description": "Ha ocurrido un error."
                    }
                }
            }
        },
        "/verChats": {
            "get": {
                "summary": "ver todos los chats",
                "operationId": "c15e556806be5bf876ef02377b176820",
                "responses": {
                    "200": {
                        "description": "ver todos los chats"
                    },
                    "default": {
                        "description": "Ha ocurrido un error."
                    }
                }
            }
        },
        "/chatArchivo": {
            "post": {
                "summary": "enviar archivos en el chat",
                "operationId": "f3d56e879ef95e0c3995b526ad466a30",
                "responses": {
                    "200": {
                        "description": "enviar archivos en el chat"
                    },
                    "422": {
                        "description": "Validation error"
                    }
                }
            }
        },
        "/login": {
            "get": {
                "summary": "Loguear usuario",
                "operationId": "3f8f7b7f359a0660b2e9b5f8525dd5e1",
                "responses": {
                    "422": {
                        "description": "Validation error"
                    }
                }
            }
        },
        "/verUsuario": {
            "get": {
                "summary": "ver Usuario Logueado",
                "operationId": "73533514c679772a5972c81947c686f9",
                "responses": {
                    "200": {
                        "description": "ver Usuario Logueado"
                    },
                    "default": {
                        "description": "Ha ocurrido un error."
                    }
                }
            }
        }
    }
}